﻿1,22:45,03.04.2012,SC Bern,ZSC Lions,4:2
2,22:45,05.12.2012,ZSC Lions,SC Bern,2:1
3,22:45,07.04.2012,SC Bern,ZSC Lions,3:0
4,18:45,09.04.2012,ZSC Lions,SC Bern,
5,22:15,12.04.2012,SC Bern,ZSC Lions,
6,22:15,14.04.2012,ZSC Lions,SC Bern,
7,22:15,17.04.2012,SC Bern,ZSC Lions,